Pengelolaan dan Analisis Data Camera Trap
…
Jika terdapat warnings, artinya di data kita terdapat satu atau lebih kolom 1000 baris pertamanya kosong. Hal ini terjadi karena read_excel tidak membaca seluruh kolom untuk menebak tipe data kolom tersebut, melainkan hanya 1000 baris pertama. Jika 1000 baris pertama pada suatu kolom kosong, read_excel akan menerka tipe data kolom tersebut sebagai logical sehingga data nonbiner yang ada di > baris ke-1000 akan dianggap error. Untuk mengatasinya, tambahkan argumen guess_max=3000 di perintah read_excel. Angka 3000 bisa diganti angka berapapun yang lebih tinggi dari nomor baris data pertama pada kolom yang dianggap error.

ct2019_t <- read_excel("Camera trap mock data.xlsx", # nama file
                       sheet="Image", # nama sheet
                       guess_max=3000) 

class(ct2019_t) # tipe data: tibble

[1] "tbl_df"     "tbl"        "data.frame"

ct2019_t 

# A tibble: 53,797 x 14
   `Location ID`  Grid Camera `Image Id` Location `Photo Type` `Genus Species`
   <chr>         <dbl> <chr>  <chr>      <chr>    <chr>        <chr>          
 1 IDN-108-L0001     1 A      GRID1A-19~ PHOTOS_~ Animal       Argusianus arg~
 2 IDN-108-L0001     1 A      GRID1A-19~ PHOTOS_~ Animal       Argusianus arg~
 3 IDN-108-L0001     1 A      GRID1A-19~ PHOTOS_~ Animal       Argusianus arg~
 4 IDN-108-L0001     1 A      GRID1A-19~ PHOTOS_~ Animal       Argusianus arg~
 5 IDN-108-L0001     1 A      GRID1A-19~ PHOTOS_~ Animal       Argusianus arg~
 6 IDN-108-L0001     1 A      GRID1A-19~ PHOTOS_~ Animal       Argusianus arg~
 7 IDN-108-L0001     1 A      GRID1A-19~ PHOTOS_~ Animal       Argusianus arg~
 8 IDN-108-L0001     1 A      GRID1A-19~ PHOTOS_~ Animal       Argusianus arg~
 9 IDN-108-L0001     1 A      GRID1A-19~ PHOTOS_~ Animal       Argusianus arg~
10 IDN-108-L0001     1 A      GRID1A-19~ PHOTOS_~ Animal       Argusianus arg~
# ... with 53,787 more rows, and 7 more variables: `Date_Time Captured` <dttm>,
#   Time <dbl>, Age <chr>, Sex <chr>, Count <dbl>, `Independent Event` <dbl>,
#   Keterangan <lgl>
…
Spesies apa yang paling sering dan paling sedikit terekam?

Berapa jumlah foto dan independent event spesies X?

Di mana saja spesies X ditemukan?

Untuk menjawab pertanyaan tersebut, kita dapat menggunakan data camera trap dengan penghitungan yang sederhana. Penghitungan ini dapat dilakukan menggunakan base R, tetapi kita akan menggunakan package tidyverse karena dapat mempermudah langkah-langkah yang cukup rumit jika dilakukan dengan perintah dasar R.

Package tidyverse sebenarnya merupakan kumpulan dari beberapa package R. Beberapa perintah yang akan sering kita gunakan adalah group_by, summarise, filter, dan subset. Perintah group_by berfungsi untuk mengelompokkan data berdasarkan variabel (kolom) tertentu. Contoh dalam konteks data camera trap adalah mengelompokkan jumlah independent event berdasarkan lokasi, berdasarkan lokasi dan spesies, dan berdasarkan jenis kelamin satwa. Perintah summarise digunakan bersama dengan perintah group_by dan berfungsi untuk meringkaskan observasi berdasarkan kategori yang kita masukkan dalam group_by. Hasil dari perintah ini adalah data frame baru yang terdiri dari kolom kategori dan kolom-kolom yang berisi ringkasan. Ringkasan yang dimaksud dapat berupa rata-rata, median, simpangan baku, jumlah observasi (count), dan sebagainya (lihat ?group_by dan ?summarise).

Fungsi filter dan subset hampir sama, yaitu untuk memilih data berdasarkan kriteria tertentu, misalnya rekaman spesies tertentu atau data dari suatu ID lokasi. Perintah subset merupakan perintah dasar R, sedangkan filter merupakan perintah dari package tidyverse. Cara penggunaannya hampir sama. Perbedaannya adalah subset memiliki argumen select untuk memilih kolom tertentu dari data utama, sedangkan filter tidak. Jika ingin memilih suatu kolom, kita harus menggunakan perintah terpisah, yaitu select.

subset(ct2019_t, `Genus Species` == "Paguma larvata", select=`Date_Time Captured`)

# A tibble: 184 x 1
   `Date_Time Captured`
   <dttm>              
 1 2019-09-03 04:18:34 
 2 2019-09-03 04:18:34 
 3 2019-09-03 04:18:34 
 4 2019-09-03 04:20:35 
 5 2019-09-03 04:20:35 
 6 2019-09-03 04:20:36 
 7 2019-09-03 04:20:42 
 8 2019-09-03 04:20:42 
 9 2019-08-03 03:10:19 
10 2019-08-03 03:10:19 
# ... with 174 more rows

filter(ct2019_t, `Genus Species` == "Paguma larvata") %>% 
  select(`Date_Time Captured`)

# A tibble: 184 x 1
   `Date_Time Captured`
   <dttm>              
 1 2019-09-03 04:18:34 
 2 2019-09-03 04:18:34 
 3 2019-09-03 04:18:34 
 4 2019-09-03 04:20:35 
 5 2019-09-03 04:20:35 
 6 2019-09-03 04:20:36 
 7 2019-09-03 04:20:42 
 8 2019-09-03 04:20:42 
 9 2019-08-03 03:10:19 
10 2019-08-03 03:10:19 
# ... with 174 more rows
…
# atau
ct2019_t %>% 
  subset(`Photo Type`=="Animal", select=`Genus Species`) %>% 
  unique() 

# A tibble: 40 x 1
   `Genus Species`     
   <chr>               
 1 Argusianus argus    
 2 Catopuma temminckii 
 3 Eupetes macrocerus  
 4 Hystrix brachyura   
 5 Muntiacus muntjak   
 6 Mydaus javanensis   
 7 Nesolagus netscheri 
 8 Pardofelis marmorata
 9 Rusa unicolor       
10 Sus scrofa          
# ... with 30 more rows

Tambahkan perintah %>% print(n=Inf) di bagian akhir untuk menampilkan semua spesies.

2. Berapa jumlah foto dan IE tiap spesies?

ct2019_t %>% 
  subset(`Photo Type`=="Animal") %>% 
  group_by(`Genus Species`) %>% 
  summarise(n_foto = n(),
            n_IE = sum(`Independent Event`))

# A tibble: 40 x 3
   `Genus Species`          n_foto  n_IE
   <chr>                     <int> <dbl>
 1 Arctictis binturong          54    11
 2 Arctonyx hoevenii             6     3
 3 Argusianus argus           1428   300
 4 Capricornis sumatraensis      5     1
 5 Catopuma temminckii         500   101
 6 Chalcophaps indica           15     6
 7 Echinosorex gymnura         297   105
 8 Elephas maximus             238     2
 9 Eupetes macrocerus            2     2
10 Helarctos malayanus        1101   102
# ... with 30 more rows
…
# A tibble: 5 x 3
  `Genus Species`          n_foto  n_IE
  <chr>                     <int> <dbl>
1 Capricornis sumatraensis      5     1
2 Meiglyptes tukki              3     1
3 Nesolagus netscheri          10     1
4 Spilornis cheela              3     1
5 Sundasciurus tenuis           3     1

# Untuk mengurutkan tabel dari jumlah IE terendah ke tertinggi
tabel_spesies %>% arrange(n_IE)

# A tibble: 40 x 3
   `Genus Species`          n_foto  n_IE
   <chr>                     <int> <dbl>
 1 Capricornis sumatraensis      5     1
 2 Meiglyptes tukki              3     1
 3 Nesolagus netscheri          10     1
 4 Spilornis cheela              3     1
 5 Sundasciurus tenuis           3     1
 6 Elephas maximus             238     2
 7 Eupetes macrocerus            2     2
 8 Trachypithecus cristatus      9     2
 9 Arctonyx hoevenii             6     3
10 Rollulus rouloul              7     3
# ... with 30 more rows

# dan sebaliknya:
tabel_spesies %>% arrange(desc(n_IE))

# A tibble: 40 x 3
   `Genus Species`     n_foto  n_IE
   <chr>                <int> <dbl>
 1 Muntiacus muntjak    10791   628
 2 Sus scrofa           10053   547
 3 Argusianus argus      1428   300
 4 Macaca nemestrina     9205   287
 5 Hystrix brachyura     1956   213
 6 Echinosorex gymnura    297   105
 7 Helarctos malayanus   1101   102
 8 Catopuma temminckii    500   101
 9 Tapirus indicus       1783   101
10 Rusa unicolor         1797    63
# ... with 30 more rows
…
# A tibble: 1 x 3
  `Genus Species`  n_foto  n_IE
  <chr>             <int> <dbl>
1 Argusianus argus   1428   300

5. Di mana saja spesies X ditemukan?

Untuk mendapatkan daftar nama lokasi tempat spesies X ditemukan:

lokasispesiesX <- ct2019_t %>% 
  subset(`Genus Species` == "Argusianus argus", select = `Location ID`) %>% 
  distinct()
lokasispesiesX

# A tibble: 35 x 1
   `Location ID`
   <chr>        
 1 IDN-108-L0001
 2 IDN-108-L0002
 3 IDN-108-L0003
 4 IDN-108-L0006
 5 IDN-108-L0007
 6 IDN-108-L0009
 7 IDN-108-L0010
 8 IDN-108-L0011
 9 IDN-108-L0012
10 IDN-108-L0013
# ... with 25 more rows
…
RAI1: jumlah hari yang dibutuhkan untuk mendapat satu temuan, dihitung dengan rumus \[\frac{\sum trap \text{ }nights}{\sum IE}\]

RAI2: kebalikan dari RAI1, yaitu jumlah temuan yang didapatkan per hari, dihitung dengan rumus \[\frac{\sum IE}{\sum trap \text{ }nights}\] Biasanya RAI2 dihitung dalam satuan jumlah temuan per 100 trap nights karena sebagian besar satwa jarang terekam sehingga rumusnya menjadi jumlah \[\frac{\sum IE}{\sum trap \text{ }nights/100}\]

Walaupun indeks ini dinamakan kepadatan relatif, sebenarnya indeks ini lebih merepresentasikan capture rate dibandingkan kepadatan relatif. Asumsi awalnya adalah RAI2 akan meningkat jika kepadatan spesies meningkat (semakin banyak satwa, semakin besar kemungkinan satwa tersebut terdeteksi). Namun, asumsi ini masih diragukan. Misalnya, suatu kamera dapat merekam ratusan independent events kuau raja jika berada dekat dengan dancing ground. Hal ini bukan berarti RAI tidak berguna, melainkan lebih baik memperlakukan RAI sebagai indeks capture rate daripada menganggapnya sebagai representasi kepadatan relatif.

Untuk selanjutnya, kita akan menyebut RAI2 sebagai RAI saja. Untuk menghitung RAI per spesies untuk keseluruhan survei, jumlah independent event setiap spesies dibagi dengan total trap nights per 100.

# Menghitung RAI
tabel_spesies <- tabel_spesies %>%
  mutate(RAI = n_IE/(totaltn/100)) #rumus RAI

tabel_spesies

# A tibble: 40 x 4
   `Genus Species`          n_foto  n_IE    RAI
   <chr>                     <int> <dbl>  <dbl>
 1 Arctictis binturong          54    11 0.120 
 2 Arctonyx hoevenii             6     3 0.0329
 3 Argusianus argus           1428   300 3.29  
 4 Capricornis sumatraensis      5     1 0.0110
 5 Catopuma temminckii         500   101 1.11  
 6 Chalcophaps indica           15     6 0.0657
 7 Echinosorex gymnura         297   105 1.15  
 8 Elephas maximus             238     2 0.0219
 9 Eupetes macrocerus            2     2 0.0219
10 Helarctos malayanus        1101   102 1.12  
# ... with 30 more rows
…
Menghitung ukuran keterpusatan (central tendency) dan keragaman (spread) RAI

species_RAI %>% 
  group_by(`Genus Species`) %>% 
  summarise(n = n(),
            rerata = mean(RAI),
            simpanganbaku = sd(RAI),
            median = median(RAI),
            kuartil_bawah = quantile(RAI, probs=0.25),
            kuartil_atas = quantile(RAI, probs=0.75),
            hamparan = IQR(RAI)) # hamparan = interquartile range = Q3 - Q1

# A tibble: 40 x 8
   `Genus Species`     n rerata simpanganbaku median kuartil_bawah kuartil_atas
   <chr>           <int>  <dbl>         <dbl>  <dbl>         <dbl>        <dbl>
 1 Arctictis bint~     9  0.867        0.319   0.714         0.709        0.719
 2 Arctonyx hoeve~     1  2.05        NA       2.05          2.05         2.05 
 3 Argusianus arg~    35  6.08        13.5     1.43          0.719        4.91 
 4 Capricornis su~     1  0.685       NA       0.685         0.685        0.685
 5 Catopuma temmi~    33  2.13         1.96    1.37          0.709        2.78 
 6 Chalcophaps in~     5  0.853        0.316   0.709         0.709        0.719
 7 Echinosorex gy~    18  4.08         6.19    1.74          0.716        3.57 
 8 Elephas maximus     2  0.674        0.0160  0.674         0.668        0.679
 9 Eupetes macroc~     1  1.43        NA       1.43          1.43         1.43 
10 Helarctos mala~    42  1.70         1.42    1.35          0.714        2.11 
# ... with 30 more rows, and 1 more variable: hamparan <dbl>
…
