Modul Pemodelan Distribusi Spesies
…
Kita akan membuat file .csv untuk input Maxent dari data camera trap.

library(tidyverse);library(readxl)

# Data spesies
spdata <- read_excel("Input Data/DATABASE - BBS_TIGER_SURVEY_2019.xlsx",
                     sheet="Image") %>%
  dplyr::filter(`Genus Species` == "Mydaus javanensis") %>% 
  dplyr::select(`Genus Species`, `Location ID`)
spdata

# A tibble: 275 x 2
   `Genus Species`   `Location ID`
   <chr>             <chr>        
 1 Mydaus javanensis IDN-108-L0001
 2 Mydaus javanensis IDN-108-L0001
 3 Mydaus javanensis IDN-108-L0001
 4 Mydaus javanensis IDN-108-L0001
 5 Mydaus javanensis IDN-108-L0001
 6 Mydaus javanensis IDN-108-L0001
 7 Mydaus javanensis IDN-108-L0001
 8 Mydaus javanensis IDN-108-L0001
 9 Mydaus javanensis IDN-108-L0001
10 Mydaus javanensis IDN-108-L0001
# ... with 265 more rows

# Data lokasi
locdata <- read_excel("Input Data/DATABASE - BBS_TIGER_SURVEY_2019.xlsx",
                     sheet="Deployment") %>% 
  dplyr::select(`Location ID`, X, Y) %>% 
  distinct()

locdata

# A tibble: 65 x 3
   `Location ID`       X       Y
   <chr>           <dbl>   <dbl>
 1 IDN-108-L0001 410043. 9420108
 2 IDN-108-L0002 411656. 9420620
 3 IDN-108-L0003 403964. 9417453
 4 IDN-108-L0004 405670. 9418788
 5 IDN-108-L0005 408496. 9417530
 6 IDN-108-L0006 411770. 9417906
 7 IDN-108-L0007 414715. 9417847
 8 IDN-108-L0008 402775  9416319
 9 IDN-108-L0009 406523  9416378
10 IDN-108-L0010 407969. 9415929
# ... with 55 more rows
…
Salah satu kekurangan dari metode GLM adalah kita tidak dapat memastikan ketidakberadaan spesies. Misalnya, kita survei menggunakan camera trap di 10 lokasi dan spesies target ditemukan di 4 lokasi. Di 6 lokasi lainnya, bukan berarti spesies tersebut benar-benar tidak ada. Bisa jadi spesies target ada, hanya tidak terdeteksi. Masalah tentang probabilitas deteksi ini akan dibahas dalam pemodelan okupansi. Namun, asumsi dalam kerangka kerja GLM adalah data absence dianggap sebagai true absence.

Data yang akan kita gunakan di latihan ini adalah data rekaman spesies dari camera trap dan kita akan memodelkan distribusi Mydaus javanensis, tetapi sebagai contoh multispesies, kita akan men-subset juga Paguma larvata.

library(tidyverse);library(readxl)

spdata <- read_excel("Input Data/DATABASE - BBS_TIGER_SURVEY_2019.xlsx",
                     sheet="Image") %>%
  dplyr::filter(`Genus Species` %in% c("Mydaus javanensis",
                                       "Paguma larvata")) 
spdata

# A tibble: 696 x 21
   `Deployment ID` `Location ID`  Grid Camera `Image Id` Location `Photo Type`
   <chr>           <chr>         <dbl> <chr>  <chr>      <chr>    <chr>       
 1 IDN-108-D0011   IDN-108-L0001     1 A      GRID1A-19~ PHOTOS_~ Animal      
 2 IDN-108-D0011   IDN-108-L0001     1 A      GRID1A-19~ PHOTOS_~ Animal      
 3 IDN-108-D0011   IDN-108-L0001     1 A      GRID1A-19~ PHOTOS_~ Animal      
 4 IDN-108-D0011   IDN-108-L0001     1 A      GRID1A-19~ PHOTOS_~ Animal      
 5 IDN-108-D0011   IDN-108-L0001     1 A      GRID1A-19~ PHOTOS_~ Animal      
 6 IDN-108-D0011   IDN-108-L0001     1 A      GRID1A-19~ PHOTOS_~ Animal      
 7 IDN-108-D0011   IDN-108-L0001     1 A      GRID1A-19~ PHOTOS_~ Animal      
 8 IDN-108-D0011   IDN-108-L0001     1 A      GRID1A-19~ PHOTOS_~ Animal      
 9 IDN-108-D0011   IDN-108-L0001     1 A      GRID1A-19~ PHOTOS_~ Animal      
10 IDN-108-D0011   IDN-108-L0001     1 A      GRID1A-19~ PHOTOS_~ Animal      
# ... with 686 more rows, and 14 more variables: `Photo Type Identified
#   by` <chr>, `Genus Species` <chr>, `IUCN Identification Number` <dbl>,
#   `Date_Time Captured` <dttm>, Time <dbl>, Age <chr>, Sex <chr>, `Tiger
#   ID` <chr>, `Tiger ID (Refer to ID Convention)` <lgl>, Count <dbl>, `Animal
#   recognizable (Y/N, blank)` <lgl>, `Individual Animal notes` <lgl>,
#   `Independent Event` <dbl>, Keterangan <chr>

Data spesies ini perlu kita modifikasi terlebih dahulu sebelum digabungkan dengan data koordinat lokasi.

spdata <- spdata %>% 
  dplyr::select(`Location ID`,`Genus Species`) %>% # memilih kolom lokasi dan spesies saja
  mutate(presence=1) %>% # assign nilai 1 untuk presence
  distinct() %>% # hilangkan duplikasi temuan di lokasi yang sama
  spread(key=`Genus Species`,value=presence, fill=0) # membuat matriks lokasi X spesies 

spdata

# A tibble: 39 x 3
   `Location ID` `Mydaus javanensis` `Paguma larvata`
   <chr>                       <dbl>            <dbl>
 1 IDN-108-L0001                   1                0
 2 IDN-108-L0002                   1                1
 3 IDN-108-L0005                   1                1
 4 IDN-108-L0007                   1                1
 5 IDN-108-L0008                   1                1
 6 IDN-108-L0009                   1                1
 7 IDN-108-L0010                   1                0
 8 IDN-108-L0011                   1                0
 9 IDN-108-L0012                   1                0
10 IDN-108-L0013                   0                1
# ... with 29 more rows

Kemudian, kita akan memanggil data lokasi kamera dan koordinat untuk menggabungkan data spesies dengan data lokasi kamera. Kita hanya akan menggunakan tiga kolom yang akan dipilih dengan perintah select. Data lokasi kamera yang digunakan berasal dari survei harimau sehingga dua kamera dipasang berhadapan di satu koordinat/lokasi. Oleh karena itu, kita akan menghilangkan data duplikat kamera dengan perintah distinct.

locdata <- read_excel("Input Data/DATABASE - BBS_TIGER_SURVEY_2019.xlsx",
                     sheet="Deployment") %>% 
  dplyr::select(`Location ID`, X, Y) %>% 
  distinct()

locdata

# A tibble: 65 x 3
   `Location ID`       X       Y
   <chr>           <dbl>   <dbl>
 1 IDN-108-L0001 410043. 9420108
 2 IDN-108-L0002 411656. 9420620
 3 IDN-108-L0003 403964. 9417453
 4 IDN-108-L0004 405670. 9418788
 5 IDN-108-L0005 408496. 9417530
 6 IDN-108-L0006 411770. 9417906
 7 IDN-108-L0007 414715. 9417847
 8 IDN-108-L0008 402775  9416319
 9 IDN-108-L0009 406523  9416378
10 IDN-108-L0010 407969. 9415929
# ... with 55 more rows

Gabungkan data lokasi kamera dan data keberadaan spesies.

sploc <- left_join(locdata,spdata) %>%
  replace(is.na(.), 0) # mengganti NA dengan 0

sploc

# A tibble: 65 x 5
   `Location ID`       X       Y `Mydaus javanensis` `Paguma larvata`
   <chr>           <dbl>   <dbl>               <dbl>            <dbl>
 1 IDN-108-L0001 410043. 9420108                   1                0
 2 IDN-108-L0002 411656. 9420620                   1                1
 3 IDN-108-L0003 403964. 9417453                   0                0
 4 IDN-108-L0004 405670. 9418788                   0                0
 5 IDN-108-L0005 408496. 9417530                   1                1
 6 IDN-108-L0006 411770. 9417906                   0                0
 7 IDN-108-L0007 414715. 9417847                   1                1
 8 IDN-108-L0008 402775  9416319                   1                1
 9 IDN-108-L0009 406523  9416378                   1                1
10 IDN-108-L0010 407969. 9415929                   1                0
# ... with 55 more rows
…
Pemodelan okupansi merupakan pemodelan berhierarki karena terdapat dua parameter yang diestimasi, yaitu probabilitas okupansi \(/psi\) dan probabilitas deteksi \(p\).

Persiapan Data

library(tidyverse);library(readxl);library(camtrapR)

spdata <- read_excel("Input Data/DATABASE - BBS_TIGER_SURVEY_2019.xlsx",
                     sheet="Image") %>% 
    dplyr::select(LocationID = `Location ID`,
                  Species = `Genus Species`,
                  datetime = `Date_Time Captured`) 

spdata

# A tibble: 122,491 x 3
   LocationID    Species          datetime           
   <chr>         <chr>            <dttm>             
 1 IDN-108-L0001 Argusianus argus 2019-07-02 07:50:01
 2 IDN-108-L0001 Argusianus argus 2019-07-02 07:50:02
 3 IDN-108-L0001 Argusianus argus 2019-07-05 11:15:47
 4 IDN-108-L0001 Argusianus argus 2019-07-05 11:15:48
 5 IDN-108-L0001 Argusianus argus 2019-07-05 11:15:49
 6 IDN-108-L0001 Argusianus argus 2019-07-14 06:56:02
 7 IDN-108-L0001 Argusianus argus 2019-07-14 11:55:21
 8 IDN-108-L0001 Argusianus argus 2019-07-14 11:55:21
 9 IDN-108-L0001 Argusianus argus 2019-07-16 17:40:17
10 IDN-108-L0001 Argusianus argus 2019-07-16 17:40:19
# ... with 122,481 more rows

Kemudian, kita akan memanggil data pemasangan dan pengambilan kamera dan koordinat untuk menggabungkan data spesies dengan data lokasi kamera.

camdata <- read_excel("Input Data/DATABASE - BBS_TIGER_SURVEY_2019.xlsx",
                     sheet="Deployment") %>% 
  dplyr::select(DeploymentID=`Deployment ID`,
                LocationID=`Location ID`,
                X,Y,
                Begin=`Camera Deployment Begin Date`,
                End=`Camera last picture date`) %>% 
  dplyr::filter(!is.na(End)) 
  
camdata

# A tibble: 126 x 6
   DeploymentID LocationID      X      Y Begin               End                
   <chr>        <chr>       <dbl>  <dbl> <dttm>              <dttm>             
 1 IDN-108-D00~ IDN-108-L~ 4.10e5 9.42e6 2019-06-28 00:00:00 2019-11-15 00:00:00
 2 IDN-108-D00~ IDN-108-L~ 4.12e5 9.42e6 2019-06-28 00:00:00 2019-11-15 00:00:00
 3 IDN-108-D00~ IDN-108-L~ 4.12e5 9.42e6 2019-06-28 00:00:00 2019-11-15 00:00:00
 4 IDN-108-D00~ IDN-108-L~ 4.04e5 9.42e6 2019-06-29 00:00:00 2019-11-16 00:00:00
 5 IDN-108-D00~ IDN-108-L~ 4.06e5 9.42e6 2019-06-29 00:00:00 2019-06-29 00:00:00
 6 IDN-108-D00~ IDN-108-L~ 4.06e5 9.42e6 2019-06-29 00:00:00 2019-11-16 00:00:00
 7 IDN-108-D00~ IDN-108-L~ 4.08e5 9.42e6 2019-06-30 00:00:00 2019-11-17 00:00:00
 8 IDN-108-D00~ IDN-108-L~ 4.08e5 9.42e6 2019-06-30 00:00:00 2019-11-17 00:00:00
 9 IDN-108-D00~ IDN-108-L~ 4.12e5 9.42e6 2019-06-27 00:00:00 2019-11-14 00:00:00
10 IDN-108-D00~ IDN-108-L~ 4.12e5 9.42e6 2019-06-27 00:00:00 2019-11-14 00:00:00
# ... with 116 more rows
…
